…
devtools::install_github("politicaargentina/electorAr")
```

## Ejemplo de uso (*Usage*)

``` r
library(electorAr)

# Elecciones disponibles según dos fuente de datos
# 'results' para datos agregados y 'data' para escrutinios provisorios 

show_available_elections(source = "results")
```

    ## # A tibble: 728 x 5
    ##    district category round  year  NOMBRE   
    ##    <chr>    <chr>    <chr>  <chr> <chr>    
    ##  1 arg      presi    balota 2015  ARGENTINA
    ##  2 arg      presi    gral   1946  ARGENTINA
    ##  3 arg      presi    gral   1951  ARGENTINA
    ##  4 arg      presi    gral   1958  ARGENTINA
    ##  5 arg      presi    gral   1963  ARGENTINA
    ##  6 arg      presi    gral   1983  ARGENTINA
    ##  7 arg      presi    gral   1989  ARGENTINA
    ##  8 arg      presi    gral   1995  ARGENTINA
    ##  9 arg      presi    gral   1999  ARGENTINA
    ## 10 arg      presi    gral   2003  ARGENTINA
    ## # ... with 718 more rows
…
