Calcula número de bancas legislativas a repartir en una elección — compute_seats • electorAr
…
    See also

    compute_nep, compute_competitiveness, compute_disproportion

    Examples

electorAr::get_election_data(district = "caba",
                          category = "dip",
                          round = "gral",
                          year = 2007) -> caba_dip_2007

 caba_dip_2007
#> # A tibble: 32 × 8
#> # Groups:   codprov [1]
#>    category round  year codprov name_prov electores listas  votos
#>    <chr>    <chr> <dbl> <chr>   <chr>         <dbl> <chr>   <dbl>
#>  1 dip      gral   2007 01      CABA        2564950 0003   104599
#>  2 dip      gral   2007 01      CABA        2564950 0005     4634
#>  3 dip      gral   2007 01      CABA        2564950 0009    79154
#>  4 dip      gral   2007 01      CABA        2564950 0014    12107
#>  5 dip      gral   2007 01      CABA        2564950 0020    41071
#>  6 dip      gral   2007 01      CABA        2564950 0023     4409
#>  7 dip      gral   2007 01      CABA        2564950 0036    26889
#>  8 dip      gral   2007 01      CABA        2564950 0037     3177
#>  9 dip      gral   2007 01      CABA        2564950 0038    33654
#> 10 dip      gral   2007 01      CABA        2564950 0050   247836
#> # ℹ 22 more rows
…
